simulation.vcd
$date
	Fri May  8 00:17:04 2026
$end
$version
	Icarus Verilog
$end
$timescale
	1ps
$end
$scope module tb_processor $end
$var reg 1 ! clk $end
$var reg 1 " reset $end
$scope module dut $end
$var wire 1 # PCSrc $end
$var wire 1 ! clk $end
$var wire 1 " reset $end
$var wire 32 $ WB_reg_write_data [31:0] $end
$var wire 5 % WB_rd_addr [4:0] $end
$var wire 32 & WB_mem_data [31:0] $end
$var wire 32 ' WB_alu_result [31:0] $end
$var wire 1 ( WB_RegWrite $end
$var wire 1 ) WB_MemtoReg $end
$var wire 32 * MEM_read_data [31:0] $end
$var wire 5 + MEM_rd_addr [4:0] $end
$var wire 32 , MEM_rd2_data [31:0] $end
$var wire 32 - MEM_pc_branch [31:0] $end
$var wire 1 . MEM_alu_zero $end
$var wire 32 / MEM_alu_result [31:0] $end
$var wire 1 0 MEM_RegWrite $end
$var wire 1 1 MEM_MemtoReg $end
$var wire 1 2 MEM_MemWrite $end
$var wire 1 3 MEM_MemRead $end
$var wire 1 4 MEM_Branch $end
$var wire 32 5 IF_pc_plus4 [31:0] $end
$var wire 32 6 IF_pc_next [31:0] $end
$var wire 32 7 IF_pc_current [31:0] $end
$var wire 32 8 IF_instr [31:0] $end
$var wire 32 9 ID_rd2 [31:0] $end
$var wire 32 : ID_rd1 [31:0] $end
$var wire 32 ; ID_pc [31:0] $end
$var wire 32 < ID_instr [31:0] $end
$var wire 32 = ID_imm [31:0] $end
$var wire 1 > ID_RegWrite $end
$var wire 1 ? ID_MemtoReg $end
$var wire 1 @ ID_MemWrite $end
$var wire 1 A ID_MemRead $end
$var wire 1 B ID_Branch $end
$var wire 1 C ID_ALUSrc $end
$var wire 2 D ID_ALUOp [1:0] $end
$var wire 5 E EX_rd_addr [4:0] $end
$var wire 32 F EX_rd2 [31:0] $end
$var wire 32 G EX_rd1 [31:0] $end
$var wire 32 H EX_pc [31:0] $end
$var wire 32 I EX_imm [31:0] $end
$var wire 7 J EX_funct7 [6:0] $end
$var wire 3 K EX_funct3 [2:0] $end
$var wire 32 L EX_branch_pc [31:0] $end
$var wire 1 M EX_alu_zero $end
$var wire 32 N EX_alu_src2 [31:0] $end
$var wire 32 O EX_alu_result [31:0] $end
$var wire 4 P EX_alu_ctrl [3:0] $end
$var wire 1 Q EX_RegWrite $end
$var wire 1 R EX_MemtoReg $end
$var wire 1 S EX_MemWrite $end
$var wire 1 T EX_MemRead $end
$var wire 1 U EX_Branch $end
$var wire 1 V EX_ALUSrc $end
$var wire 2 W EX_ALUOp [1:0] $end
$scope module ALUC $end
$var wire 7 X funct7 [6:0] $end
$var wire 3 Y funct3 [2:0] $end
$var wire 2 Z ALUOp [1:0] $end
$var reg 4 [ ALUControl [3:0] $end
$upscope $end
$scope module ALUMUX $end
$var wire 32 \ read_data2 [31:0] $end
$var wire 32 ] imm [31:0] $end
$var wire 1 V ALUSrc $end
$var reg 32 ^ alu_src [31:0] $end
$upscope $end
$scope module ALU_UNIT $end
$var wire 4 _ ALUControl [3:0] $end
$var wire 32 ` B [31:0] $end
$var wire 1 M Zero $end
$var wire 32 a A [31:0] $end
$var reg 32 b Result [31:0] $end
$upscope $end
$scope module BADD $end
$var wire 32 c pc [31:0] $end
$var wire 32 d immediate [31:0] $end
$var wire 32 e branch_address [31:0] $end
$upscope $end
$scope module CU $end
$var wire 7 f opcode [6:0] $end
$var reg 2 g ALUOp [1:0] $end
$var reg 1 C ALUSrc $end
$var reg 1 B Branch $end
$var reg 1 A MemRead $end
$var reg 1 @ MemWrite $end
$var reg 1 ? MemtoReg $end
$var reg 1 > RegWrite $end
$upscope $end
$scope module DMEM $end
$var wire 1 ! clk $end
$var wire 32 h data_in [31:0] $end
$var wire 32 i address [31:0] $end
$var wire 1 2 MemWrite $end
$var wire 1 3 MemRead $end
$var reg 32 j data_out [31:0] $end
$var integer 32 k i [31:0] $end
$upscope $end
$scope module EX_MEM $end
$var wire 32 l alu_result_in [31:0] $end
$var wire 1 M alu_zero_in $end
$var wire 32 m branch_pc_in [31:0] $end
$var wire 1 ! clk $end
$var wire 1 " reset $end
$var wire 5 n rd_addr_in [4:0] $end
$var wire 32 o rd2_data_in [31:0] $end
$var wire 1 Q RegWrite_in $end
$var wire 1 R MemtoReg_in $end
$var wire 1 S MemWrite_in $end
$var wire 1 T MemRead_in $end
$var wire 1 U Branch_in $end
$var reg 1 4 Branch_out $end
$var reg 1 3 MemRead_out $end
$var reg 1 2 MemWrite_out $end
$var reg 1 1 MemtoReg_out $end
$var reg 1 0 RegWrite_out $end
$var reg 32 p alu_result_out [31:0] $end
$var reg 1 . alu_zero_out $end
$var reg 32 q branch_pc_out [31:0] $end
$var reg 32 r rd2_data_out [31:0] $end
$var reg 5 s rd_addr_out [4:0] $end
$upscope $end
$scope module ID_EX $end
$var wire 2 t ALUOp_in [1:0] $end
$var wire 1 C ALUSrc_in $end
$var wire 1 B Branch_in $end
$var wire 1 A MemRead_in $end
$var wire 1 @ MemWrite_in $end
$var wire 1 ? MemtoReg_in $end
$var wire 1 > RegWrite_in $end
$var wire 1 ! clk $end
$var wire 3 u funct3_in [2:0] $end
$var wire 7 v funct7_in [6:0] $end
$var wire 5 w rd_addr_in [4:0] $end
$var wire 1 " reset $end
$var wire 5 x rs1_in [4:0] $end
$var wire 5 y rs2_in [4:0] $end
$var wire 32 z rd2_in [31:0] $end
$var wire 32 { rd1_in [31:0] $end
$var wire 32 | pc_in [31:0] $end
$var wire 32 } imm_in [31:0] $end
$var reg 2 ~ ALUOp_out [1:0] $end
$var reg 1 V ALUSrc_out $end
$var reg 1 U Branch_out $end
$var reg 1 T MemRead_out $end
$var reg 1 S MemWrite_out $end
$var reg 1 R MemtoReg_out $end
$var reg 1 Q RegWrite_out $end
$var reg 3 !" funct3_out [2:0] $end
$var reg 7 "" funct7_out [6:0] $end
$var reg 32 #" imm_out [31:0] $end
$var reg 32 $" pc_out [31:0] $end
$var reg 32 %" rd1_out [31:0] $end
$var reg 32 &" rd2_out [31:0] $end
$var reg 5 '" rd_addr_out [4:0] $end
$var reg 5 (" rs1_out [4:0] $end
$var reg 5 )" rs2_out [4:0] $end
$upscope $end
$scope module IF_ADDER $end
$var wire 4 *" b [3:0] $end
$var wire 32 +" a [31:0] $end
$var reg 32 ," sum [31:0] $end
$upscope $end
$scope module IF_ID $end
$var wire 1 ! clk $end
$var wire 1 " reset $end
$var wire 32 -" pc_in [31:0] $end
$var wire 32 ." inst_in [31:0] $end
$var reg 32 /" inst_out [31:0] $end
$var reg 32 0" pc_out [31:0] $end
$upscope $end
$scope module IG $end
$var wire 32 1" instruction [31:0] $end
$var wire 12 2" store_im [11:0] $end
$var wire 7 3" opcode [6:0] $end
$var wire 12 4" load_im [11:0] $end
$var wire 12 5" branch_im [12:1] $end
$var reg 32 6" immediate_output [31:0] $end
$upscope $end
$scope module IMEM $end
$var wire 32 7" instruction [31:0] $end
$var wire 32 8" address [31:0] $end
$upscope $end
$scope module MEM_WB $end
$var wire 1 1 MemtoReg_in $end
$var wire 1 0 RegWrite_in $end
$var wire 32 9" alu_result_in [31:0] $end
$var wire 1 ! clk $end
$var wire 32 :" mem_data_in [31:0] $end
$var wire 5 ;" rd_addr_in [4:0] $end
$var wire 1 " reset $end
$var reg 1 ) MemtoReg_out $end
$var reg 1 ( RegWrite_out $end
$var reg 32 <" alu_result_out [31:0] $end
$var reg 32 =" mem_data_out [31:0] $end
$var reg 5 >" rd_addr_out [4:0] $end
$upscope $end
$scope module PC_MUX $end
$var wire 32 ?" branch_target [31:0] $end
$var wire 32 @" pc_plus_4 [31:0] $end
$var wire 1 # pc_src $end
$var reg 32 A" pc_next [31:0] $end
$upscope $end
$scope module PC_REG $end
$var wire 1 ! clk $end
$var wire 32 B" pc_in [31:0] $end
$var wire 1 " reset $end
$var reg 32 C" pc_out [31:0] $end
$upscope $end
$scope module RF $end
$var wire 1 ( RegWrite $end
$var wire 1 ! clk $end
$var wire 5 D" read_reg1 [4:0] $end
$var wire 5 E" read_reg2 [4:0] $end
$var wire 1 " reset $end
$var wire 5 F" write_reg [4:0] $end
$var wire 32 G" write_data [31:0] $end
$var reg 32 H" read_data1 [31:0] $end
$var reg 32 I" read_data2 [31:0] $end
$upscope $end
$scope module WBMUX $end
$var wire 1 ) MemtoReg $end
$var wire 32 J" alu_result [31:0] $end
$var wire 32 K" read_data [31:0] $end
$var reg 32 L" write_data [31:0] $end
$upscope $end
$upscope $end
$upscope $end
$enddefinitions $end
#0
$dumpvars
b0 L"
b0 K"
b0 J"
b0 I"
b0 H"
b0 G"
b0 F"
b0 E"
b0 D"
b0 C"
b100 B"
b100 A"
b100 @"
b0 ?"
b0 >"
b0 ="
b0 <"
b0 ;"
b0 :"
b0 9"
b0 8"
b101001001000001010110011 7"
b0 6"
b0 5"
b0 4"
b0 3"
b0 2"
b0 1"
b0 0"
b0 /"
b101001001000001010110011 ."
b0 -"
b100 ,"
b0 +"
b100 *"
b0 )"
b0 ("
b0 '"
b0 &"
b0 %"
b0 $"
b0 #"
b0 ""
b0 !"
b0 ~
b0 }
b0 |
b0 {
b0 z
bz y
bz x
b0 w
b0 v
b0 u
b0 t
b0 s
b0 r
b0 q
b0 p
b0 o
b0 n
b0 m
b0 l
b100000000000000 k
b0 j
b0 i
b0 h
b0 g
b0 f
b0 e
b0 d
b0 c
b0 b
b0 a
b0 `
b10 _
b0 ^
b0 ]
b0 \
b10 [
b0 Z
b0 Y
b0 X
b0 W
0V
0U
0T
0S
0R
0Q
b10 P
b0 O
b0 N
1M
b0 L
b0 K
b0 J
b0 I
b0 H
b0 G
b0 F
b0 E
b0 D
0C
0B
0A
0@
0?
0>
b0 =
b0 <
b0 ;
b0 :
b0 9
b101001001000001010110011 8
b0 7
b100 6
b100 5
04
03
02
01
00
b0 /
0.
b0 -
b0 ,
b0 +
b0 *
0)
0(
b0 '
b0 &
b0 %
b0 $
0#
1"
0!
$end
#5000
1!
#10000
0!
#15000
1!
#20000
0!
0"
#25000
b1000 6
b1000 A"
b1000 B"
b1000 5
b1000 ,"
b1000 @"
b10 D
b10 g
b10 t
1>
b110011 3"
b1010 4"
b101 2"
b10000000010 5"
b101 w
b1010 E"
b1001 D"
b110011 f
1.
bz )"
bz ("
b101001001000001010110011 <
b101001001000001010110011 /"
b101001001000001010110011 1"
b10011 8
b10011 ."
b10011 7"
b100 7
b100 +"
b100 -"
b100 8"
b100 C"
1!
#30000
0!
#35000
b1100 6
b1100 A"
b1100 B"
b1100 5
b1100 ,"
b1100 @"
b0 D
b0 g
b0 t
0>
b10011 3"
b0 4"
b0 2"
b0 5"
b0 w
b0 E"
b0 D"
b10011 f
b1000 7
b1000 +"
b1000 -"
b1000 8"
b1000 C"
b10011 <
b10011 /"
b10011 1"
b100 ;
b100 |
b100 0"
b101 E
b101 n
b101 '"
b10 W
b10 Z
b10 ~
1Q
1!
#40000
0!
#45000
b10000 6
b10000 A"
b10000 B"
b10000 5
b10000 ,"
b10000 @"
b101 +
b101 s
b101 ;"
10
b0 E
b0 n
b0 '"
b100 L
b100 e
b100 m
b100 H
b100 c
b100 $"
b0 W
b0 Z
b0 ~
0Q
b1000 ;
b1000 |
b1000 0"
b1100 7
b1100 +"
b1100 -"
b1100 8"
b1100 C"
1!
#50000
0!
#55000
b10100 6
b10100 A"
b10100 B"
b10100 5
b10100 ,"
b10100 @"
b1000000101100101000001100110011 8
b1000000101100101000001100110011 ."
b1000000101100101000001100110011 7"
b10000 7
b10000 +"
b10000 -"
b10000 8"
b10000 C"
b1100 ;
b1100 |
b1100 0"
b1000 L
b1000 e
b1000 m
b1000 H
b1000 c
b1000 $"
b0 +
b0 s
b0 ;"
b100 -
b100 q
b100 ?"
00
b101 %
b101 >"
b101 F"
1(
1!
#60000
0!
#65000
b11000 6
b11000 A"
b11000 B"
b11000 5
b11000 ,"
b11000 @"
b10 D
b10 g
b10 t
1>
b110011 3"
b10000001011 4"
b10000000110 2"
b1000000011 5"
b100000 v
b110 w
b1011 E"
b101 D"
b110011 f
b0 %
b0 >"
b0 F"
0(
b1000 -
b1000 q
b1000 ?"
b1100 L
b1100 e
b1100 m
b1100 H
b1100 c
b1100 $"
b1000000101100101000001100110011 <
b1000000101100101000001100110011 /"
b1000000101100101000001100110011 1"
b10000 ;
b10000 |
b10000 0"
b10011 8
b10011 ."
b10011 7"
b10100 7
b10100 +"
b10100 -"
b10100 8"
b10100 C"
1!
#70000
0!
#75000
b11100 6
b11100 A"
b11100 B"
b11100 5
b11100 ,"
b11100 @"
b0 D
b0 g
b0 t
0>
b10011 3"
b0 4"
b0 2"
b0 5"
b0 v
b0 w
b0 E"
b0 D"
b10011 f
b110 P
b110 [
b110 _
b11000 7
b11000 +"
b11000 -"
b11000 8"
b11000 C"
b10011 <
b10011 /"
b10011 1"
b10100 ;
b10100 |
b10100 0"
b100000 J
b100000 X
b100000 ""
b110 E
b110 n
b110 '"
b10000 L
b10000 e
b10000 m
b10000 H
b10000 c
b10000 $"
b10 W
b10 Z
b10 ~
1Q
b1100 -
b1100 q
b1100 ?"
1!
#80000
0!
#85000
b100000 6
b100000 A"
b100000 B"
b100000 5
b100000 ,"
b100000 @"
b10 P
b10 [
b10 _
b110 +
b110 s
b110 ;"
b10000 -
b10000 q
b10000 ?"
10
b0 J
b0 X
b0 ""
b0 E
b0 n
b0 '"
b10100 L
b10100 e
b10100 m
b10100 H
b10100 c
b10100 $"
b0 W
b0 Z
b0 ~
0Q
b11000 ;
b11000 |
b11000 0"
b11100 7
b11100 +"
b11100 -"
b11100 8"
b11100 C"
1!
#90000
0!
#95000
b100100 6
b100100 A"
b100100 B"
b100100 5
b100100 ,"
b100100 @"
b11000000010010000100011 8
b11000000010010000100011 ."
b11000000010010000100011 7"
b100000 7
b100000 +"
b100000 -"
b100000 8"
b100000 C"
b11100 ;
b11100 |
b11100 0"
b11000 L
b11000 e
b11000 m
b11000 H
b11000 c
b11000 $"
b0 +
b0 s
b0 ;"
b10100 -
b10100 q
b10100 ?"
00
b110 %
b110 >"
b110 F"
1(
1!
#100000
0!
#105000
b101000 6
b101000 A"
b101000 B"
b101000 5
b101000 ,"
b101000 @"
b1000 =
b1000 }
b1000 6"
1@
1C
b100011 3"
b110 4"
b1000 2"
b100 5"
b10 u
b1000 w
b110 E"
b100011 f
b0 %
b0 >"
b0 F"
0(
b11000 -
b11000 q
b11000 ?"
b11100 L
b11100 e
b11100 m
b11100 H
b11100 c
b11100 $"
b11000000010010000100011 <
b11000000010010000100011 /"
b11000000010010000100011 1"
b100000 ;
b100000 |
b100000 0"
b10011 8
b10011 ."
b10011 7"
b100100 7
b100100 +"
b100100 -"
b100100 8"
b100100 C"
1!
#110000
0!
#115000
b101100 6
b101100 A"
b101100 B"
b101100 5
b101100 ,"
b101100 @"
b0 =
b0 }
b0 6"
0@
0C
0M
b1000 O
b1000 b
b1000 l
b10011 3"
b0 4"
b0 2"
b0 5"
b0 u
b0 w
b0 E"
b10011 f
b1000 N
b1000 ^
b1000 `
b101000 7
b101000 +"
b101000 -"
b101000 8"
b101000 C"
b10011 <
b10011 /"
b10011 1"
b100100 ;
b100100 |
b100100 0"
b10 K
b10 Y
b10 !"
b1000 E
b1000 n
b1000 '"
b1000 I
b1000 ]
b1000 d
b1000 #"
b101000 L
b101000 e
b101000 m
b100000 H
b100000 c
b100000 $"
1V
1S
b11100 -
b11100 q
b11100 ?"
1!
#120000
0!
#125000
b110000 6
b110000 A"
b110000 B"
b110000 5
b110000 ,"
b110000 @"
1M
b0 O
b0 b
b0 l
b0 N
b0 ^
b0 `
b1000 +
b1000 s
b1000 ;"
b1000 /
b1000 i
b1000 p
b1000 9"
0.
b101000 -
b101000 q
b101000 ?"
12
b0 K
b0 Y
b0 !"
b0 E
b0 n
b0 '"
b0 I
b0 ]
b0 d
b0 #"
b100100 L
b100100 e
b100100 m
b100100 H
b100100 c
b100100 $"
0V
0S
b101000 ;
b101000 |
b101000 0"
b101100 7
b101100 +"
b101100 -"
b101100 8"
b101100 C"
1!
#130000
0!
#135000
b110100 6
b110100 A"
b110100 B"
b110100 5
b110100 ,"
b110100 @"
b1000 $
b1000 G"
b1000 L"
b100000000010001110000011 8
b100000000010001110000011 ."
b100000000010001110000011 7"
b110000 7
b110000 +"
b110000 -"
b110000 8"
b110000 C"
b101100 ;
b101100 |
b101100 0"
b101000 L
b101000 e
b101000 m
b101000 H
b101000 c
b101000 $"
b0 +
b0 s
b0 ;"
b0 /
b0 i
b0 p
b0 9"
1.
b100100 -
b100100 q
b100100 ?"
02
b1000 %
b1000 >"
b1000 F"
b1000 '
b1000 <"
b1000 J"
1!
#140000
0!
#145000
b111000 6
b111000 A"
b111000 B"
b111000 5
b111000 ,"
b111000 @"
b1000 =
b1000 }
b1000 6"
1A
1>
1?
1C
b0 $
b0 G"
b0 L"
b11 3"
b1000 4"
b111 2"
b10000000011 5"
b10 u
b111 w
b1000 E"
b11 f
b0 %
b0 >"
b0 F"
b0 '
b0 <"
b0 J"
b101000 -
b101000 q
b101000 ?"
b101100 L
b101100 e
b101100 m
b101100 H
b101100 c
b101100 $"
b100000000010001110000011 <
b100000000010001110000011 /"
b100000000010001110000011 1"
b110000 ;
b110000 |
b110000 0"
b10011 8
b10011 ."
b10011 7"
b110100 7
b110100 +"
b110100 -"
b110100 8"
b110100 C"
1!
#150000
0!
#155000
b111100 6
b111100 A"
b111100 B"
b111100 5
b111100 ,"
b111100 @"
b0 =
b0 }
b0 6"
0A
0>
0?
0C
0M
b1000 O
b1000 b
b1000 l
b10011 3"
b0 4"
b0 2"
b0 5"
b0 u
b0 w
b0 E"
b10011 f
b1000 N
b1000 ^
b1000 `
b111000 7
b111000 +"
b111000 -"
b111000 8"
b111000 C"
b10011 <
b10011 /"
b10011 1"
b110100 ;
b110100 |
b110100 0"
b10 K
b10 Y
b10 !"
b111 E
b111 n
b111 '"
b1000 I
b1000 ]
b1000 d
b1000 #"
b111000 L
b111000 e
b111000 m
b110000 H
b110000 c
b110000 $"
1V
1T
1R
1Q
b101100 -
b101100 q
b101100 ?"
1!
#160000
0!
#165000
b1000000 6
b1000000 A"
b1000000 B"
b1000000 5
b1000000 ,"
b1000000 @"
1M
b0 O
b0 b
b0 l
b0 N
b0 ^
b0 `
b111 +
b111 s
b111 ;"
b1000 /
b1000 i
b1000 p
b1000 9"
0.
b111000 -
b111000 q
b111000 ?"
13
11
10
b0 K
b0 Y
b0 !"
b0 E
b0 n
b0 '"
b0 I
b0 ]
b0 d
b0 #"
b110100 L
b110100 e
b110100 m
b110100 H
b110100 c
b110100 $"
0V
0T
0R
0Q
b111000 ;
b111000 |
b111000 0"
b111100 7
b111100 +"
b111100 -"
b111100 8"
b111100 C"
1!
#170000
0!
#175000
b1000100 6
b1000100 A"
b1000100 B"
b1000100 5
b1000100 ,"
b1000100 @"
b11111110011000111000100011100011 8
b11111110011000111000100011100011 ."
b11111110011000111000100011100011 7"
b1000000 7
b1000000 +"
b1000000 -"
b1000000 8"
b1000000 C"
b111100 ;
b111100 |
b111100 0"
b111000 L
b111000 e
b111000 m
b111000 H
b111000 c
b111000 $"
b0 +
b0 s
b0 ;"
b0 /
b0 i
b0 p
b0 9"
1.
b110100 -
b110100 q
b110100 ?"
03
01
00
b111 %
b111 >"
b111 F"
b1000 '
b1000 <"
b1000 J"
1)
1(
1!
#180000
0!
#185000
b1001000 6
b1001000 A"
b1001000 B"
b1001000 5
b1001000 ,"
b1001000 @"
b11111111111111111111111111110000 =
b11111111111111111111111111110000 }
b11111111111111111111111111110000 6"
b1 D
b1 g
b1 t
1B
b1100011 3"
b111111100110 4"
b111111110001 2"
b111111111000 5"
b1111111 v
b10001 w
b110 E"
b111 D"
b1100011 f
b0 %
b0 >"
b0 F"
b0 '
b0 <"
b0 J"
0)
0(
b111000 -
b111000 q
b111000 ?"
b111100 L
b111100 e
b111100 m
b111100 H
b111100 c
b111100 $"
b11111110011000111000100011100011 <
b11111110011000111000100011100011 /"
b11111110011000111000100011100011 1"
b1000000 ;
b1000000 |
b1000000 0"
bx 8
bx ."
bx 7"
b1000100 7
b1000100 +"
b1000100 -"
b1000100 8"
b1000100 C"
1!
#190000
0!
#195000
b1001100 6
b1001100 A"
b1001100 B"
b1001100 5
b1001100 ,"
b1001100 @"
b0 =
b0 }
b0 6"
bx 9
bx z
bx I"
bx :
bx {
bx H"
b0 D
b0 g
b0 t
0B
bx 3"
bx 4"
bx 2"
bx 5"
bx v
bx u
bx w
bx E"
bx D"
bx f
b110 P
b110 [
b110 _
b1001000 7
b1001000 +"
b1001000 -"
b1001000 8"
b1001000 C"
bx <
bx /"
bx 1"
b1000100 ;
b1000100 |
b1000100 0"
b1111111 J
b1111111 X
b1111111 ""
b10001 E
b10001 n
b10001 '"
b11111111111111111111111111110000 I
b11111111111111111111111111110000 ]
b11111111111111111111111111110000 d
b11111111111111111111111111110000 #"
b110000 L
b110000 e
b110000 m
b1000000 H
b1000000 c
b1000000 $"
b1 W
b1 Z
b1 ~
1U
b111100 -
b111100 q
b111100 ?"
1!
#200000
0!
#205000
b1010000 5
b1010000 ,"
b1010000 @"
b110000 6
b110000 A"
b110000 B"
1#
bx N
bx ^
bx `
xM
bx O
bx b
bx l
b10 P
b10 [
b10 _
b10001 +
b10001 s
b10001 ;"
b110000 -
b110000 q
b110000 ?"
14
bx J
bx X
bx ""
bx K
bx Y
bx !"
bx E
bx n
bx '"
b0 I
b0 ]
b0 d
b0 #"
bx F
bx \
bx o
bx &"
bx G
bx a
bx %"
b1000100 L
b1000100 e
b1000100 m
b1000100 H
b1000100 c
b1000100 $"
b0 W
b0 Z
b0 ~
0U
b1001000 ;
b1001000 |
b1001000 0"
b1001100 7
b1001100 +"
b1001100 -"
b1001100 8"
b1001100 C"
1!
#210000
0!
#215000
b110100 5
b110100 ,"
b110100 @"
b110100 6
b110100 A"
b110100 B"
0#
b100000000010001110000011 8
b100000000010001110000011 ."
b100000000010001110000011 7"
b110000 7
b110000 +"
b110000 -"
b110000 8"
b110000 C"
b1001100 ;
b1001100 |
b1001100 0"
b1001000 L
b1001000 e
b1001000 m
b1001000 H
b1001000 c
b1001000 $"
bx +
bx s
bx ;"
bx ,
bx h
bx r
bx /
bx i
bx p
bx 9"
x.
b1000100 -
b1000100 q
b1000100 ?"
04
b10001 %
b10001 >"
b10001 F"
1!
#220000
0!
#225000
b111000 6
b111000 A"
b111000 B"
b111000 5
b111000 ,"
b111000 @"
b1000 =
b1000 }
b1000 6"
b0 9
b0 z
b0 I"
b0 :
b0 {
b0 H"
1A
1>
1?
1C
bx $
bx G"
bx L"
b11 3"
b1000 4"
b111 2"
b10000000011 5"
b0 v
b10 u
b111 w
b1000 E"
b0 D"
b11 f
bx %
bx >"
bx F"
bx '
bx <"
bx J"
b1001000 -
b1001000 q
b1001000 ?"
b1001100 L
b1001100 e
b1001100 m
b1001100 H
b1001100 c
b1001100 $"
b100000000010001110000011 <
b100000000010001110000011 /"
b100000000010001110000011 1"
b110000 ;
b110000 |
b110000 0"
b10011 8
b10011 ."
b10011 7"
b110100 7
b110100 +"
b110100 -"
b110100 8"
b110100 C"
1!
#230000
0!
#235000
b111100 6
b111100 A"
b111100 B"
b111100 5
b111100 ,"
b111100 @"
b0 =
b0 }
b0 6"
0A
0>
0?
0C
b10011 3"
b0 4"
b0 2"
b0 5"
b0 u
b0 w
b0 E"
b10011 f
0M
b1000 O
b1000 b
b1000 l
b1000 N
b1000 ^
b1000 `
b111000 7
b111000 +"
b111000 -"
b111000 8"
b111000 C"
b10011 <
b10011 /"
b10011 1"
b110100 ;
b110100 |
b110100 0"
b0 J
b0 X
b0 ""
b10 K
b10 Y
b10 !"
b111 E
b111 n
b111 '"
b1000 I
b1000 ]
b1000 d
b1000 #"
b0 F
b0 \
b0 o
b0 &"
b0 G
b0 a
b0 %"
b111000 L
b111000 e
b111000 m
b110000 H
b110000 c
b110000 $"
1V
1T
1R
1Q
b1001100 -
b1001100 q
b1001100 ?"
1!
#240000
0!
#245000
b1000000 6
b1000000 A"
b1000000 B"
b1000000 5
b1000000 ,"
b1000000 @"
1M
b0 O
b0 b
b0 l
b0 N
b0 ^
b0 `
b111 +
b111 s
b111 ;"
b0 ,
b0 h
b0 r
b1000 /
b1000 i
b1000 p
b1000 9"
0.
b111000 -
b111000 q
b111000 ?"
13
11
10
b0 K
b0 Y
b0 !"
b0 E
b0 n
b0 '"
b0 I
b0 ]
b0 d
b0 #"
b110100 L
b110100 e
b110100 m
b110100 H
b110100 c
b110100 $"
0V
0T
0R
0Q
b111000 ;
b111000 |
b111000 0"
b111100 7
b111100 +"
b111100 -"
b111100 8"
b111100 C"
1!
#250000
0!
#255000
b1000100 6
b1000100 A"
b1000100 B"
b1000100 5
b1000100 ,"
b1000100 @"
b0 $
b0 G"
b0 L"
b11111110011000111000100011100011 8
b11111110011000111000100011100011 ."
b11111110011000111000100011100011 7"
b1000000 7
b1000000 +"
b1000000 -"
b1000000 8"
b1000000 C"
b111100 ;
b111100 |
b111100 0"
b111000 L
b111000 e
b111000 m
b111000 H
b111000 c
b111000 $"
b0 +
b0 s
b0 ;"
b0 /
b0 i
b0 p
b0 9"
1.
b110100 -
b110100 q
b110100 ?"
03
01
00
b111 %
b111 >"
b111 F"
b1000 '
b1000 <"
b1000 J"
1)
1(
1!
#260000
0!
#265000
b1001000 6
b1001000 A"
b1001000 B"
b1001000 5
b1001000 ,"
b1001000 @"
b11111111111111111111111111110000 =
b11111111111111111111111111110000 }
b11111111111111111111111111110000 6"
b1 D
b1 g
b1 t
1B
b1100011 3"
b111111100110 4"
b111111110001 2"
b111111111000 5"
b1111111 v
b10001 w
b110 E"
b111 D"
b1100011 f
b0 %
b0 >"
b0 F"
b0 '
b0 <"
b0 J"
0)
0(
b111000 -
b111000 q
b111000 ?"
b111100 L
b111100 e
b111100 m
b111100 H
b111100 c
b111100 $"
b11111110011000111000100011100011 <
b11111110011000111000100011100011 /"
b11111110011000111000100011100011 1"
b1000000 ;
b1000000 |
b1000000 0"
bx 8
bx ."
bx 7"
b1000100 7
b1000100 +"
b1000100 -"
b1000100 8"
b1000100 C"
1!
#270000
0!
#275000
b1001100 6
b1001100 A"
b1001100 B"
b1001100 5
b1001100 ,"
b1001100 @"
b0 =
b0 }
b0 6"
bx 9
bx z
bx I"
bx :
bx {
bx H"
b0 D
b0 g
b0 t
0B
bx 3"
bx 4"
bx 2"
bx 5"
bx v
bx u
bx w
bx E"
bx D"
bx f
b110 P
b110 [
b110 _
b1001000 7
b1001000 +"
b1001000 -"
b1001000 8"
b1001000 C"
bx <
bx /"
bx 1"
b1000100 ;
b1000100 |
b1000100 0"
b1111111 J
b1111111 X
b1111111 ""
b10001 E
b10001 n
b10001 '"
b11111111111111111111111111110000 I
b11111111111111111111111111110000 ]
b11111111111111111111111111110000 d
b11111111111111111111111111110000 #"
b110000 L
b110000 e
b110000 m
b1000000 H
b1000000 c
b1000000 $"
b1 W
b1 Z
b1 ~
1U
b111100 -
b111100 q
b111100 ?"
1!
#280000
0!
#285000
b1010000 5
b1010000 ,"
b1010000 @"
b110000 6
b110000 A"
b110000 B"
1#
bx N
bx ^
bx `
xM
bx O
bx b
bx l
b10 P
b10 [
b10 _
b10001 +
b10001 s
b10001 ;"
b110000 -
b110000 q
b110000 ?"
14
bx J
bx X
bx ""
bx K
bx Y
bx !"
bx E
bx n
bx '"
b0 I
b0 ]
b0 d
b0 #"
bx F
bx \
bx o
bx &"
bx G
bx a
bx %"
b1000100 L
b1000100 e
b1000100 m
b1000100 H
b1000100 c
b1000100 $"
b0 W
b0 Z
b0 ~
0U
b1001000 ;
b1001000 |
b1001000 0"
b1001100 7
b1001100 +"
b1001100 -"
b1001100 8"
b1001100 C"
1!
#290000
0!
#295000
b110100 5
b110100 ,"
b110100 @"
b110100 6
b110100 A"
b110100 B"
0#
b100000000010001110000011 8
b100000000010001110000011 ."
b100000000010001110000011 7"
b110000 7
b110000 +"
b110000 -"
b110000 8"
b110000 C"
b1001100 ;
b1001100 |
b1001100 0"
b1001000 L
b1001000 e
b1001000 m
b1001000 H
b1001000 c
b1001000 $"
bx +
bx s
bx ;"
bx ,
bx h
bx r
bx /
bx i
bx p
bx 9"
x.
b1000100 -
b1000100 q
b1000100 ?"
04
b10001 %
b10001 >"
b10001 F"
1!
#300000
0!
#305000
b111000 6
b111000 A"
b111000 B"
b111000 5
b111000 ,"
b111000 @"
b1000 =
b1000 }
b1000 6"
b0 9
b0 z
b0 I"
b0 :
b0 {
b0 H"
1A
1>
1?
1C
bx $
bx G"
bx L"
b11 3"
b1000 4"
b111 2"
b10000000011 5"
b0 v
b10 u
b111 w
b1000 E"
b0 D"
b11 f
bx %
bx >"
bx F"
bx '
bx <"
bx J"
b1001000 -
b1001000 q
b1001000 ?"
b1001100 L
b1001100 e
b1001100 m
b1001100 H
b1001100 c
b1001100 $"
b100000000010001110000011 <
b100000000010001110000011 /"
b100000000010001110000011 1"
b110000 ;
b110000 |
b110000 0"
b10011 8
b10011 ."
b10011 7"
b110100 7
b110100 +"
b110100 -"
b110100 8"
b110100 C"
1!
#310000
0!
