simulation.vcd
$date
	Fri May  8 01:11:44 2026
$end
$version
	Icarus Verilog
$end
$timescale
	1ps
$end
$scope module tb_processor $end
$var reg 1 ! clk $end
$var reg 1 " reset $end
$scope module dut $end
$var wire 1 # PCSrc $end
$var wire 1 ! clk $end
$var wire 1 " reset $end
$var wire 1 $ stall $end
$var wire 32 % forwardB_mux_out [31:0] $end
$var wire 2 & forwardB [1:0] $end
$var wire 32 ' forwardA_mux_out [31:0] $end
$var wire 2 ( forwardA [1:0] $end
$var wire 1 ) actual_RegWrite $end
$var wire 1 * actual_MemWrite $end
$var wire 1 + actual_MemRead $end
$var wire 32 , WB_reg_write_data [31:0] $end
$var wire 5 - WB_rd_addr [4:0] $end
$var wire 32 . WB_mem_data [31:0] $end
$var wire 32 / WB_alu_result [31:0] $end
$var wire 1 0 WB_RegWrite $end
$var wire 1 1 WB_MemtoReg $end
$var wire 32 2 MEM_read_data [31:0] $end
$var wire 5 3 MEM_rd_addr [4:0] $end
$var wire 32 4 MEM_rd2_data [31:0] $end
$var wire 32 5 MEM_pc_branch [31:0] $end
$var wire 1 6 MEM_alu_zero $end
$var wire 32 7 MEM_alu_result [31:0] $end
$var wire 1 8 MEM_RegWrite $end
$var wire 1 9 MEM_MemtoReg $end
$var wire 1 : MEM_MemWrite $end
$var wire 1 ; MEM_MemRead $end
$var wire 1 < MEM_Branch $end
$var wire 32 = IF_pc_plus4 [31:0] $end
$var wire 32 > IF_pc_next [31:0] $end
$var wire 32 ? IF_pc_current [31:0] $end
$var wire 32 @ IF_instr [31:0] $end
$var wire 32 A ID_rd2 [31:0] $end
$var wire 32 B ID_rd1 [31:0] $end
$var wire 32 C ID_pc [31:0] $end
$var wire 32 D ID_instr [31:0] $end
$var wire 32 E ID_imm [31:0] $end
$var wire 1 F ID_RegWrite $end
$var wire 1 G ID_MemtoReg $end
$var wire 1 H ID_MemWrite $end
$var wire 1 I ID_MemRead $end
$var wire 1 J ID_Branch $end
$var wire 1 K ID_ALUSrc $end
$var wire 2 L ID_ALUOp [1:0] $end
$var wire 5 M EX_rs2 [4:0] $end
$var wire 5 N EX_rs1 [4:0] $end
$var wire 5 O EX_rd_addr [4:0] $end
$var wire 32 P EX_rd2 [31:0] $end
$var wire 32 Q EX_rd1 [31:0] $end
$var wire 32 R EX_pc [31:0] $end
$var wire 32 S EX_imm [31:0] $end
$var wire 7 T EX_funct7 [6:0] $end
$var wire 3 U EX_funct3 [2:0] $end
$var wire 32 V EX_branch_pc [31:0] $end
$var wire 1 W EX_alu_zero $end
$var wire 32 X EX_alu_src2 [31:0] $end
$var wire 32 Y EX_alu_result [31:0] $end
$var wire 4 Z EX_alu_ctrl [3:0] $end
$var wire 1 [ EX_RegWrite $end
$var wire 1 \ EX_MemtoReg $end
$var wire 1 ] EX_MemWrite $end
$var wire 1 ^ EX_MemRead $end
$var wire 1 _ EX_Branch $end
$var wire 1 ` EX_ALUSrc $end
$var wire 2 a EX_ALUOp [1:0] $end
$scope module ALUC $end
$var wire 7 b funct7 [6:0] $end
$var wire 3 c funct3 [2:0] $end
$var wire 2 d ALUOp [1:0] $end
$var reg 4 e ALUControl [3:0] $end
$upscope $end
$scope module ALU_UNIT $end
$var wire 32 f A [31:0] $end
$var wire 4 g ALUControl [3:0] $end
$var wire 32 h B [31:0] $end
$var wire 1 W Zero $end
$var reg 32 i Result [31:0] $end
$upscope $end
$scope module BADD $end
$var wire 32 j pc [31:0] $end
$var wire 32 k immediate [31:0] $end
$var wire 32 l branch_address [31:0] $end
$upscope $end
$scope module CU $end
$var wire 7 m opcode [6:0] $end
$var reg 2 n ALUOp [1:0] $end
$var reg 1 K ALUSrc $end
$var reg 1 J Branch $end
$var reg 1 I MemRead $end
$var reg 1 H MemWrite $end
$var reg 1 G MemtoReg $end
$var reg 1 F RegWrite $end
$upscope $end
$scope module DMEM $end
$var wire 1 ! clk $end
$var wire 32 o data_in [31:0] $end
$var wire 32 p address [31:0] $end
$var wire 1 : MemWrite $end
$var wire 1 ; MemRead $end
$var reg 32 q data_out [31:0] $end
$var integer 32 r i [31:0] $end
$upscope $end
$scope module EX_MEM $end
$var wire 32 s alu_result_in [31:0] $end
$var wire 1 W alu_zero_in $end
$var wire 32 t branch_pc_in [31:0] $end
$var wire 1 ! clk $end
$var wire 32 u rd2_data_in [31:0] $end
$var wire 1 " reset $end
$var wire 5 v rd_addr_in [4:0] $end
$var wire 1 [ RegWrite_in $end
$var wire 1 \ MemtoReg_in $end
$var wire 1 ] MemWrite_in $end
$var wire 1 ^ MemRead_in $end
$var wire 1 _ Branch_in $end
$var reg 1 < Branch_out $end
$var reg 1 ; MemRead_out $end
$var reg 1 : MemWrite_out $end
$var reg 1 9 MemtoReg_out $end
$var reg 1 8 RegWrite_out $end
$var reg 32 w alu_result_out [31:0] $end
$var reg 1 6 alu_zero_out $end
$var reg 32 x branch_pc_out [31:0] $end
$var reg 32 y rd2_data_out [31:0] $end
$var reg 5 z rd_addr_out [4:0] $end
$upscope $end
$scope module FU $end
$var wire 1 8 MEM_RegWrite $end
$var wire 5 { MEM_rd [4:0] $end
$var wire 5 | WB_rd [4:0] $end
$var wire 1 0 WB_RegWrite $end
$var wire 5 } EX_rs2 [4:0] $end
$var wire 5 ~ EX_rs1 [4:0] $end
$var reg 2 !" forwardA [1:0] $end
$var reg 2 "" forwardB [1:0] $end
$upscope $end
$scope module HDU $end
$var wire 5 #" ID_rs1 [4:0] $end
$var wire 5 $" ID_rs2 [4:0] $end
$var wire 5 %" EX_rd [4:0] $end
$var wire 1 ^ EX_MemRead $end
$var reg 1 $ stall $end
$upscope $end
$scope module ID_EX $end
$var wire 2 &" ALUOp_in [1:0] $end
$var wire 1 K ALUSrc_in $end
$var wire 1 J Branch_in $end
$var wire 1 + MemRead_in $end
$var wire 1 * MemWrite_in $end
$var wire 1 G MemtoReg_in $end
$var wire 1 ) RegWrite_in $end
$var wire 1 ! clk $end
$var wire 3 '" funct3_in [2:0] $end
$var wire 7 (" funct7_in [6:0] $end
$var wire 5 )" rd_addr_in [4:0] $end
$var wire 1 *" reset $end
$var wire 5 +" rs1_in [4:0] $end
$var wire 5 ," rs2_in [4:0] $end
$var wire 32 -" rd2_in [31:0] $end
$var wire 32 ." rd1_in [31:0] $end
$var wire 32 /" pc_in [31:0] $end
$var wire 32 0" imm_in [31:0] $end
$var reg 2 1" ALUOp_out [1:0] $end
$var reg 1 ` ALUSrc_out $end
$var reg 1 _ Branch_out $end
$var reg 1 ^ MemRead_out $end
$var reg 1 ] MemWrite_out $end
$var reg 1 \ MemtoReg_out $end
$var reg 1 [ RegWrite_out $end
$var reg 3 2" funct3_out [2:0] $end
$var reg 7 3" funct7_out [6:0] $end
$var reg 32 4" imm_out [31:0] $end
$var reg 32 5" pc_out [31:0] $end
$var reg 32 6" rd1_out [31:0] $end
$var reg 32 7" rd2_out [31:0] $end
$var reg 5 8" rd_addr_out [4:0] $end
$var reg 5 9" rs1_out [4:0] $end
$var reg 5 :" rs2_out [4:0] $end
$upscope $end
$scope module IF_ADDER $end
$var wire 4 ;" b [3:0] $end
$var wire 32 <" a [31:0] $end
$var reg 32 =" sum [31:0] $end
$upscope $end
$scope module IF_ID $end
$var wire 1 ! clk $end
$var wire 1 # flush $end
$var wire 1 " reset $end
$var wire 1 $ stall $end
$var wire 32 >" pc_in [31:0] $end
$var wire 32 ?" inst_in [31:0] $end
$var reg 32 @" inst_out [31:0] $end
$var reg 32 A" pc_out [31:0] $end
$upscope $end
$scope module IG $end
$var wire 32 B" instruction [31:0] $end
$var wire 12 C" store_im [11:0] $end
$var wire 7 D" opcode [6:0] $end
$var wire 12 E" load_im [11:0] $end
$var wire 12 F" branch_im [12:1] $end
$var reg 32 G" immediate_output [31:0] $end
$upscope $end
$scope module IMEM $end
$var wire 32 H" instruction [31:0] $end
$var wire 32 I" address [31:0] $end
$upscope $end
$scope module MEM_WB $end
$var wire 1 9 MemtoReg_in $end
$var wire 1 8 RegWrite_in $end
$var wire 32 J" alu_result_in [31:0] $end
$var wire 1 ! clk $end
$var wire 32 K" mem_data_in [31:0] $end
$var wire 5 L" rd_addr_in [4:0] $end
$var wire 1 " reset $end
$var reg 1 1 MemtoReg_out $end
$var reg 1 0 RegWrite_out $end
$var reg 32 M" alu_result_out [31:0] $end
$var reg 32 N" mem_data_out [31:0] $end
$var reg 5 O" rd_addr_out [4:0] $end
$upscope $end
$scope module PC_MUX $end
$var wire 32 P" branch_target [31:0] $end
$var wire 32 Q" pc_plus_4 [31:0] $end
$var wire 1 # pc_src $end
$var reg 32 R" pc_next [31:0] $end
$upscope $end
$scope module PC_REG $end
$var wire 1 ! clk $end
$var wire 32 S" pc_in [31:0] $end
$var wire 1 " reset $end
$var wire 1 $ stall $end
$var reg 32 T" pc_out [31:0] $end
$upscope $end
$scope module RF $end
$var wire 1 0 RegWrite $end
$var wire 1 ! clk $end
$var wire 5 U" read_reg1 [4:0] $end
$var wire 5 V" read_reg2 [4:0] $end
$var wire 1 " reset $end
$var wire 5 W" write_reg [4:0] $end
$var wire 32 X" write_data [31:0] $end
$var reg 32 Y" read_data1 [31:0] $end
$var reg 32 Z" read_data2 [31:0] $end
$upscope $end
$scope module WBMUX $end
$var wire 1 1 MemtoReg $end
$var wire 32 [" alu_result [31:0] $end
$var wire 32 \" read_data [31:0] $end
$var reg 32 ]" write_data [31:0] $end
$upscope $end
$upscope $end
$upscope $end
$enddefinitions $end
#0
$dumpvars
b0 ]"
b0 \"
b0 ["
b0 Z"
b0 Y"
b0 X"
b0 W"
bx V"
bx U"
bx T"
bx S"
bx R"
bx Q"
b0 P"
b0 O"
b0 N"
b0 M"
b0 L"
b0 K"
b0 J"
bx I"
bx H"
bx G"
bx F"
bx E"
bx D"
bx C"
bx B"
bx A"
bx @"
bx ?"
bx >"
bx ="
bx <"
b100 ;"
bx :"
bx 9"
bx 8"
bx 7"
bx 6"
bx 5"
bx 4"
bx 3"
bx 2"
bx 1"
bx 0"
bx /"
b0 ."
b0 -"
bx ,"
bx +"
1*"
bx )"
bx ("
bx '"
bx &"
bx %"
bx $"
bx #"
b0 ""
b0 !"
bx ~
bx }
b0 |
b0 {
b0 z
b0 y
b0 x
b0 w
bx v
bx u
bx t
bx s
b100000000000000 r
b0 q
b0 p
b0 o
bx n
bx m
bx l
bx k
bx j
bx i
bx h
bx g
bx f
bx e
bx d
bx c
bx b
bx a
x`
x_
x^
x]
x\
x[
bx Z
bx Y
bx X
xW
bx V
bx U
bx T
bx S
bx R
bx Q
bx P
bx O
bx N
bx M
bx L
xK
xJ
xI
xH
xG
xF
bx E
bx D
bx C
b0 B
b0 A
bx @
bx ?
bx >
bx =
0<
0;
0:
09
08
b0 7
06
b0 5
b0 4
b0 3
b0 2
01
00
b0 /
b0 .
b0 -
b0 ,
x+
x*
x)
b0 (
bx '
b0 &
bx %
x$
0#
1"
0!
$end
#5000
b100 >
b100 R"
b100 S"
b100 =
b100 ="
b100 Q"
1W
b0 Y
b0 i
b0 s
0*
0+
0)
b0 X
b0 h
b0 E
b0 0"
b0 G"
b0 L
b0 n
b0 &"
0J
0H
0I
0F
0G
0K
b0 %
b0 u
b0 '
b0 f
b101001001000001010110011 @
b101001001000001010110011 ?"
b101001001000001010110011 H"
b10011 D"
b0 E"
b0 C"
b0 F"
b0 ("
b0 '"
b0 )"
b0 ,"
b0 +"
b0 V"
b0 U"
b10011 m
b0 $"
b0 #"
b10 Z
b10 e
b10 g
0$
b0 ?
b0 <"
b0 >"
b0 I"
b0 T"
b10011 D
b10011 @"
b10011 B"
b0 C
b0 /"
b0 A"
b0 T
b0 b
b0 3"
b0 U
b0 c
b0 2"
b0 O
b0 v
b0 %"
b0 8"
b0 M
b0 }
b0 :"
b0 N
b0 ~
b0 9"
b0 V
b0 l
b0 t
b0 S
b0 k
b0 4"
b0 P
b0 7"
b0 Q
b0 6"
b0 R
b0 j
b0 5"
b0 a
b0 d
b0 1"
0`
0_
0]
0^
0\
0[
1!
#10000
0!
#15000
1!
#20000
0*"
0!
0"
#25000
b1000 >
b1000 R"
b1000 S"
b1000 =
b1000 ="
b1000 Q"
1)
b1010 A
b1010 -"
b1010 Z"
b10100 B
b10100 ."
b10100 Y"
b10 L
b10 n
b10 &"
1F
b1000000101100101000001100110011 @
b1000000101100101000001100110011 ?"
b1000000101100101000001100110011 H"
b110011 D"
b1010 E"
b101 C"
b10000000010 F"
b101 )"
b1010 ,"
b1001 +"
b1010 V"
b1001 U"
b110011 m
b1010 $"
b1001 #"
b100 ?
b100 <"
b100 >"
b100 I"
b100 T"
b101001001000001010110011 D
b101001001000001010110011 @"
b101001001000001010110011 B"
16
1!
#30000
0!
#35000
b1100 >
b1100 R"
b1100 S"
b1100 =
b1100 ="
b1100 Q"
b1010 X
b1010 h
0W
b11110 Y
b11110 i
b11110 s
b1010 %
b1010 u
b10100 '
b10100 f
b101 A
b101 -"
b101 Z"
b0 B
b0 ."
b0 Y"
b10000001011 E"
b10000000110 C"
b1000000011 F"
b100000 ("
b110 )"
b1011 ,"
b101 +"
b1011 V"
b101 U"
b1011 $"
b101 #"
b11000000010010000100011 @
b11000000010010000100011 ?"
b11000000010010000100011 H"
b1010 M
b1010 }
b1010 :"
b1001 N
b1001 ~
b1001 9"
b101 O
b101 v
b101 %"
b101 8"
b1010 P
b1010 7"
b10100 Q
b10100 6"
b10 a
b10 d
b10 1"
1[
b1000000101100101000001100110011 D
b1000000101100101000001100110011 @"
b1000000101100101000001100110011 B"
b100 C
b100 /"
b100 A"
b1000 ?
b1000 <"
b1000 >"
b1000 I"
b1000 T"
1!
#40000
0!
#45000
b10000 >
b10000 R"
b10000 S"
b10000 =
b10000 ="
b10000 Q"
1*
0)
b101 X
b101 h
b1000 E
b1000 0"
b1000 G"
b0 A
b0 -"
b0 Z"
1H
1K
b0 L
b0 n
b0 &"
0F
b11001 Y
b11001 i
b11001 s
b101 %
b101 u
b11110 '
b11110 f
b100000000010001110000011 @
b100000000010001110000011 ?"
b100000000010001110000011 H"
b100011 D"
b110 E"
b1000 C"
b100 F"
b0 ("
b10 '"
b1000 )"
b110 ,"
b0 +"
b110 V"
b0 U"
b100011 m
b110 $"
b0 #"
b110 Z
b110 e
b110 g
b10 (
b10 !"
b1100 ?
b1100 <"
b1100 >"
b1100 I"
b1100 T"
b11000000010010000100011 D
b11000000010010000100011 @"
b11000000010010000100011 B"
b1000 C
b1000 /"
b1000 A"
b1011 M
b1011 }
b1011 :"
b101 N
b101 ~
b101 9"
b100000 T
b100000 b
b100000 3"
b110 O
b110 v
b110 %"
b110 8"
b101 P
b101 7"
b0 Q
b0 6"
b100 V
b100 l
b100 t
b100 R
b100 j
b100 5"
b101 3
b101 z
b101 {
b101 L"
b1010 4
b1010 o
b1010 y
b11110 7
b11110 p
b11110 w
b11110 J"
06
18
1!
#50000
0!
#55000
b10100 >
b10100 R"
b10100 S"
b10100 =
b10100 ="
b10100 Q"
1+
1)
0*
1I
1F
1G
0H
1K
b1000 Y
b1000 i
b1000 s
b11001 %
b11001 u
b10 Z
b10 e
b10 g
b1000 X
b1000 h
b11 D"
b1000 E"
b111 C"
b10000000011 F"
b111 )"
b1000 ,"
b1000 V"
b11 m
b1000 $"
b10100111000010000110011 @
b10100111000010000110011 ?"
b10100111000010000110011 H"
b0 '
b0 f
b11110 ,
b11110 X"
b11110 ]"
b10 &
b10 ""
b0 (
b0 !"
b110 M
b110 }
b110 :"
b0 N
b0 ~
b0 9"
b0 T
b0 b
b0 3"
b10 U
b10 c
b10 2"
b1000 O
b1000 v
b1000 %"
b1000 8"
b1000 S
b1000 k
b1000 4"
b0 P
b0 7"
b10000 V
b10000 l
b10000 t
b1000 R
b1000 j
b1000 5"
b0 a
b0 d
b0 1"
1`
1]
0[
b100000000010001110000011 D
b100000000010001110000011 @"
b100000000010001110000011 B"
b1100 C
b1100 /"
b1100 A"
b10000 ?
b10000 <"
b10000 >"
b10000 I"
b10000 T"
b110 3
b110 z
b110 {
b110 L"
b101 4
b101 o
b101 y
b11001 7
b11001 p
b11001 w
b11001 J"
b100 5
b100 x
b100 P"
b101 -
b101 |
b101 O"
b101 W"
b11110 /
b11110 M"
b11110 ["
10
1!
#60000
0!
#65000
b11000 >
b11000 R"
b11000 S"
b11000 =
b11000 ="
b11000 Q"
0+
0)
1*"
b0 E
b0 0"
b0 G"
b11110 A
b11110 -"
b11110 Z"
b10 L
b10 n
b10 &"
0I
1F
0G
0K
1$
b11110110011000111000011011100011 @
b11110110011000111000011011100011 ?"
b11110110011000111000011011100011 H"
b110011 D"
b101 E"
b1000 C"
b100 F"
b0 '"
b1000 )"
b101 ,"
b111 +"
b101 V"
b111 U"
b110011 m
b101 $"
b111 #"
b11001 ,
b11001 X"
b11001 ]"
b0 %
b0 u
b0 &
b0 ""
b10100 ?
b10100 <"
b10100 >"
b10100 I"
b10100 T"
b10100111000010000110011 D
b10100111000010000110011 @"
b10100111000010000110011 B"
b10000 C
b10000 /"
b10000 A"
b1000 M
b1000 }
b1000 :"
b111 O
b111 v
b111 %"
b111 8"
b10100 V
b10100 l
b10100 t
b1100 R
b1100 j
b1100 5"
0]
1^
1\
1[
b110 -
b110 |
b110 O"
b110 W"
b11001 /
b11001 M"
b11001 ["
b1000 3
b1000 z
b1000 {
b1000 L"
b11001 4
b11001 o
b11001 y
b1000 7
b1000 p
b1000 w
b1000 J"
b10000 5
b10000 x
b10000 P"
1:
08
1!
#70000
0!
#75000
1W
b0 Y
b0 i
b0 s
1)
0*"
b0 X
b0 h
0$
b11001 2
b11001 q
b11001 K"
b1000 ,
b1000 X"
b1000 ]"
b0 U
b0 c
b0 2"
b0 O
b0 v
b0 %"
b0 8"
b0 M
b0 }
b0 :"
b0 S
b0 k
b0 4"
b0 V
b0 l
b0 t
b0 R
b0 j
b0 5"
0`
0^
0\
0[
b111 3
b111 z
b111 {
b111 L"
b0 4
b0 o
b0 y
b10100 5
b10100 x
b10100 P"
0:
1;
19
18
b1000 -
b1000 |
b1000 O"
b1000 W"
b1000 /
b1000 M"
b1000 ["
00
1!
#80000
0!
#85000
b11100 >
b11100 R"
b11100 S"
b11100 =
b11100 ="
b11100 Q"
0W
b110111 Y
b110111 i
b110111 s
0)
b11110 X
b11110 h
b11001 '
b11001 f
b11111111111111111111111101101100 E
b11111111111111111111111101101100 0"
b11111111111111111111111101101100 G"
b11001 A
b11001 -"
b11001 Z"
1J
b1 L
b1 n
b1 &"
0F
b11110 %
b11110 u
bx @
bx ?"
bx H"
b1100011 D"
b111101100110 E"
b111101101101 C"
b111110110110 F"
b1111011 ("
b1101 )"
b110 ,"
b110 V"
b1100011 m
b110 $"
b11001 ,
b11001 X"
b11001 ]"
b0 2
b0 q
b0 K"
b1 (
b1 !"
b11000 ?
b11000 <"
b11000 >"
b11000 I"
b11000 T"
b11110110011000111000011011100011 D
b11110110011000111000011011100011 @"
b11110110011000111000011011100011 B"
b10100 C
b10100 /"
b10100 A"
b101 M
b101 }
b101 :"
b111 N
b111 ~
b111 9"
b1000 O
b1000 v
b1000 %"
b1000 8"
b11110 P
b11110 7"
b10000 V
b10000 l
b10000 t
b10000 R
b10000 j
b10000 5"
b10 a
b10 d
b10 1"
1[
b111 -
b111 |
b111 O"
b111 W"
b11001 .
b11001 N"
b11001 \"
11
10
b0 3
b0 z
b0 {
b0 L"
b0 7
b0 p
b0 w
b0 J"
16
b0 5
b0 x
b0 P"
0;
09
08
1!
#90000
0!
#95000
b100000 >
b100000 R"
b100000 S"
b100000 =
b100000 ="
b100000 Q"
b11001 X
b11001 h
b0 '
b0 f
b11001 %
b11001 u
b11111111111111111111111111100111 Y
b11111111111111111111111111100111 i
b11111111111111111111111111100111 s
b0 E
b0 0"
b0 G"
bx A
bx -"
bx Z"
b0 L
b0 n
b0 &"
0J
b110 Z
b110 e
b110 g
bx D"
bx E"
bx C"
bx F"
bx ("
bx '"
bx )"
bx ,"
bx +"
bx V"
bx U"
bx m
bx $"
bx #"
b0 ,
b0 X"
b0 ]"
b0 (
b0 !"
b110 M
b110 }
b110 :"
b1111011 T
b1111011 b
b1111011 3"
b1101 O
b1101 v
b1101 %"
b1101 8"
b11111111111111111111111101101100 S
b11111111111111111111111101101100 k
b11111111111111111111111101101100 4"
b11001 P
b11001 7"
b11111111111111111111111110000000 V
b11111111111111111111111110000000 l
b11111111111111111111111110000000 t
b10100 R
b10100 j
b10100 5"
b1 a
b1 d
b1 1"
1_
0[
bx D
bx @"
bx B"
b11000 C
b11000 /"
b11000 A"
b11100 ?
b11100 <"
b11100 >"
b11100 I"
b11100 T"
b1000 3
b1000 z
b1000 {
b1000 L"
b11110 4
b11110 o
b11110 y
b110111 7
b110111 p
b110111 w
b110111 J"
06
b10000 5
b10000 x
b10000 P"
18
b0 -
b0 |
b0 O"
b0 W"
b0 /
b0 M"
b0 ["
b0 .
b0 N"
b0 \"
01
00
bx B
bx ."
bx Y"
1!
#100000
0!
#105000
b100100 >
b100100 R"
b100100 S"
b100100 =
b100100 ="
b100100 Q"
bx X
bx h
xW
bx %
bx u
bx '
bx f
bx Y
bx i
bx s
b10 Z
b10 e
b10 g
b110111 ,
b110111 X"
b110111 ]"
b100000 ?
b100000 <"
b100000 >"
b100000 I"
b100000 T"
b11100 C
b11100 /"
b11100 A"
bx M
bx }
bx :"
bx N
bx ~
bx 9"
bx T
bx b
bx 3"
bx U
bx c
bx 2"
bx O
bx v
bx %"
bx 8"
b0 S
b0 k
b0 4"
bx P
bx 7"
bx Q
bx 6"
b11000 V
b11000 l
b11000 t
b11000 R
b11000 j
b11000 5"
b0 a
b0 d
b0 1"
0_
b1000 -
b1000 |
b1000 O"
b1000 W"
b110111 /
b110111 M"
b110111 ["
10
b1101 3
b1101 z
b1101 {
b1101 L"
b11001 4
b11001 o
b11001 y
b11111111111111111111111111100111 7
b11111111111111111111111111100111 p
b11111111111111111111111111100111 w
b11111111111111111111111111100111 J"
b11111111111111111111111110000000 5
b11111111111111111111111110000000 x
b11111111111111111111111110000000 P"
1<
08
1!
#110000
0!
#115000
b101000 >
b101000 R"
b101000 S"
b101000 =
b101000 ="
b101000 Q"
b11111111111111111111111111100111 ,
b11111111111111111111111111100111 X"
b11111111111111111111111111100111 ]"
b11100 V
b11100 l
b11100 t
b11100 R
b11100 j
b11100 5"
b100000 C
b100000 /"
b100000 A"
b100100 ?
b100100 <"
b100100 >"
b100100 I"
b100100 T"
bx 3
bx z
bx {
bx L"
bx 4
bx o
bx y
bx 7
bx p
bx w
bx J"
x6
b11000 5
b11000 x
b11000 P"
0<
b1101 -
b1101 |
b1101 O"
b1101 W"
b11111111111111111111111111100111 /
b11111111111111111111111111100111 M"
b11111111111111111111111111100111 ["
00
1!
#120000
0!
#125000
b101100 >
b101100 R"
b101100 S"
b101100 =
b101100 ="
b101100 Q"
bx ,
bx X"
bx ]"
b101000 ?
b101000 <"
b101000 >"
b101000 I"
b101000 T"
b100100 C
b100100 /"
b100100 A"
b100000 V
b100000 l
b100000 t
b100000 R
b100000 j
b100000 5"
bx -
bx |
bx O"
bx W"
bx /
bx M"
bx ["
b11100 5
b11100 x
b11100 P"
1!
#130000
0!
#135000
b110000 >
b110000 R"
b110000 S"
b110000 =
b110000 ="
b110000 Q"
b100100 V
b100100 l
b100100 t
b100100 R
b100100 j
b100100 5"
b101000 C
b101000 /"
b101000 A"
b101100 ?
b101100 <"
b101100 >"
b101100 I"
b101100 T"
b100000 5
b100000 x
b100000 P"
1!
#140000
0!
#145000
b110100 >
b110100 R"
b110100 S"
b110100 =
b110100 ="
b110100 Q"
b110000 ?
b110000 <"
b110000 >"
b110000 I"
b110000 T"
b101100 C
b101100 /"
b101100 A"
b101000 V
b101000 l
b101000 t
b101000 R
b101000 j
b101000 5"
b100100 5
b100100 x
b100100 P"
1!
#150000
0!
#155000
b111000 >
b111000 R"
b111000 S"
b111000 =
b111000 ="
b111000 Q"
b101100 V
b101100 l
b101100 t
b101100 R
b101100 j
b101100 5"
b110000 C
b110000 /"
b110000 A"
b110100 ?
b110100 <"
b110100 >"
b110100 I"
b110100 T"
b101000 5
b101000 x
b101000 P"
1!
#160000
0!
#165000
b111100 >
b111100 R"
b111100 S"
b111100 =
b111100 ="
b111100 Q"
b111000 ?
b111000 <"
b111000 >"
b111000 I"
b111000 T"
b110100 C
b110100 /"
b110100 A"
b110000 V
b110000 l
b110000 t
b110000 R
b110000 j
b110000 5"
b101100 5
b101100 x
b101100 P"
1!
#170000
0!
#175000
b1000000 >
b1000000 R"
b1000000 S"
b1000000 =
b1000000 ="
b1000000 Q"
b110100 V
b110100 l
b110100 t
b110100 R
b110100 j
b110100 5"
b111000 C
b111000 /"
b111000 A"
b111100 ?
b111100 <"
b111100 >"
b111100 I"
b111100 T"
b110000 5
b110000 x
b110000 P"
1!
#180000
0!
#185000
b1000100 >
b1000100 R"
b1000100 S"
b1000100 =
b1000100 ="
b1000100 Q"
b1000000 ?
b1000000 <"
b1000000 >"
b1000000 I"
b1000000 T"
b111100 C
b111100 /"
b111100 A"
b111000 V
b111000 l
b111000 t
b111000 R
b111000 j
b111000 5"
b110100 5
b110100 x
b110100 P"
1!
#190000
0!
#195000
b1001000 >
b1001000 R"
b1001000 S"
b1001000 =
b1001000 ="
b1001000 Q"
b111100 V
b111100 l
b111100 t
b111100 R
b111100 j
b111100 5"
b1000000 C
b1000000 /"
b1000000 A"
b1000100 ?
b1000100 <"
b1000100 >"
b1000100 I"
b1000100 T"
b111000 5
b111000 x
b111000 P"
1!
#200000
0!
#205000
b1001100 >
b1001100 R"
b1001100 S"
b1001100 =
b1001100 ="
b1001100 Q"
b1001000 ?
b1001000 <"
b1001000 >"
b1001000 I"
b1001000 T"
b1000100 C
b1000100 /"
b1000100 A"
b1000000 V
b1000000 l
b1000000 t
b1000000 R
b1000000 j
b1000000 5"
b111100 5
b111100 x
b111100 P"
1!
#210000
0!
#215000
b1010000 >
b1010000 R"
b1010000 S"
b1010000 =
b1010000 ="
b1010000 Q"
b1000100 V
b1000100 l
b1000100 t
b1000100 R
b1000100 j
b1000100 5"
b1001000 C
b1001000 /"
b1001000 A"
b1001100 ?
b1001100 <"
b1001100 >"
b1001100 I"
b1001100 T"
b1000000 5
b1000000 x
b1000000 P"
1!
#220000
0!
#225000
b1010100 >
b1010100 R"
b1010100 S"
b1010100 =
b1010100 ="
b1010100 Q"
b1010000 ?
b1010000 <"
b1010000 >"
b1010000 I"
b1010000 T"
b1001100 C
b1001100 /"
b1001100 A"
b1001000 V
b1001000 l
b1001000 t
b1001000 R
b1001000 j
b1001000 5"
b1000100 5
b1000100 x
b1000100 P"
1!
#230000
0!
#235000
b1011000 >
b1011000 R"
b1011000 S"
b1011000 =
b1011000 ="
b1011000 Q"
b1001100 V
b1001100 l
b1001100 t
b1001100 R
b1001100 j
b1001100 5"
b1010000 C
b1010000 /"
b1010000 A"
b1010100 ?
b1010100 <"
b1010100 >"
b1010100 I"
b1010100 T"
b1001000 5
b1001000 x
b1001000 P"
1!
#240000
0!
#245000
b1011100 >
b1011100 R"
b1011100 S"
b1011100 =
b1011100 ="
b1011100 Q"
b1011000 ?
b1011000 <"
b1011000 >"
b1011000 I"
b1011000 T"
b1010100 C
b1010100 /"
b1010100 A"
b1010000 V
b1010000 l
b1010000 t
b1010000 R
b1010000 j
b1010000 5"
b1001100 5
b1001100 x
b1001100 P"
1!
#250000
0!
#255000
b1100000 >
b1100000 R"
b1100000 S"
b1100000 =
b1100000 ="
b1100000 Q"
b1010100 V
b1010100 l
b1010100 t
b1010100 R
b1010100 j
b1010100 5"
b1011000 C
b1011000 /"
b1011000 A"
b1011100 ?
b1011100 <"
b1011100 >"
b1011100 I"
b1011100 T"
b1010000 5
b1010000 x
b1010000 P"
1!
#260000
0!
#265000
b1100100 >
b1100100 R"
b1100100 S"
b1100100 =
b1100100 ="
b1100100 Q"
b1100000 ?
b1100000 <"
b1100000 >"
b1100000 I"
b1100000 T"
b1011100 C
b1011100 /"
b1011100 A"
b1011000 V
b1011000 l
b1011000 t
b1011000 R
b1011000 j
b1011000 5"
b1010100 5
b1010100 x
b1010100 P"
1!
